^C:\USERS\300057079\DESKTOP\ASSIGNMENT-3-POINTERS\ASSIGNMENT 3 - POINTERS\ASSIGNMENT 3 - POINTERS\X64\DEBUG\MAIN.OBJ
C:\USERS\300057079\DESKTOP\ASSIGNMENT-3-POINTERS\ASSIGNMENT 3 - POINTERS\X64\DEBUG\ASSIGNMENT 3 - POINTERS.EXE
C:\USERS\300057079\DESKTOP\ASSIGNMENT-3-POINTERS\ASSIGNMENT 3 - POINTERS\X64\DEBUG\ASSIGNMENT 3 - POINTERS.ILK
C:\USERS\300057079\DESKTOP\ASSIGNMENT-3-POINTERS\ASSIGNMENT 3 - POINTERS\X64\DEBUG\ASSIGNMENT 3 - POINTERS.PDB
